…
```
## # A tibble: 33 × 3
##     year gender  fatalities
##    <int> <fct>        <dbl>
##  1  2010 Female          49
##  2  2010 Male            31
##  3  2010 Overall         80
##  4  2011 Female          62
##  5  2011 Male            32
##  6  2011 Overall         94
##  7  2012 Female          63
##  8  2012 Male            40
##  9  2012 Overall        103
## 10  2013 Female          73
## # ℹ 23 more rows
```
…
```
## # A tibble: 33 × 5
##     year pop_est gender  fatalities mortality_rate
##    <int>   <int> <fct>        <dbl>          <dbl>
##  1  2010 8799451 Female          49           0.56
##  2  2010 8799451 Male            31           0.35
##  3  2010 8799451 Overall         80           0.91
##  4  2011 8828552 Female          62           0.7 
##  5  2011 8828552 Male            32           0.36
##  6  2011 8828552 Overall         94           1.06
##  7  2012 8845671 Female          63           0.71
##  8  2012 8845671 Male            40           0.45
##  9  2012 8845671 Overall        103           1.16
## 10  2013 8857821 Female          73           0.82
## # ℹ 23 more rows
```
…
```
## # A tibble: 1,122 × 6
##     year state       pop_est gender fatalities mortality_rate
##    <int> <chr>         <int> <fct>       <dbl>          <dbl>
##  1  2010 Alabama     4785514 Female         44           0.92
##  2  2010 Alabama     4785514 Male           17           0.36
##  3  2010 Alaska       713982 Female         NA          NA   
##  4  2010 Alaska       713982 Male           NA          NA   
##  5  2010 Arizona     6407342 Female         31           0.48
##  6  2010 Arizona     6407342 Male           27           0.42
##  7  2010 Arkansas    2921998 Female         29           0.99
##  8  2010 Arkansas    2921998 Male            8           0.27
##  9  2010 California 37319550 Female        251           0.67
## 10  2010 California 37319550 Male          152           0.41
## # ℹ 1,112 more rows
```
…
Hm, 264/1122 that is not that bad, also it does look like they're states with limited populations, so that might be the reason is that there just weren't any fatal asthma incidents in that particular year.

I'm going to remove the missing values for our next step in this analysis


```r
asthma_mortality_no_miss <- asthma_mortality %>% 
  drop_na(mortality_rate) %>% 
  print()
```

```
## # A tibble: 858 × 6
##     year state       pop_est gender fatalities mortality_rate
##    <int> <chr>         <int> <fct>       <dbl>          <dbl>
##  1  2010 Alabama     4785514 Female         44           0.92
##  2  2010 Alabama     4785514 Male           17           0.36
##  3  2010 Arizona     6407342 Female         31           0.48
##  4  2010 Arizona     6407342 Male           27           0.42
##  5  2010 Arkansas    2921998 Female         29           0.99
##  6  2010 Arkansas    2921998 Male            8           0.27
##  7  2010 California 37319550 Female        251           0.67
##  8  2010 California 37319550 Male          152           0.41
##  9  2010 Colorado    5047539 Female         33           0.65
## 10  2010 Colorado    5047539 Male           15           0.3 
## # ℹ 848 more rows
```
…
```
## `stat_bin()` using `bins = 30`. Pick better value with `binwidth`.
```

<img src="{{< blogdown/postref >}}index_files/figure-html/unnamed-chunk-11-1.png" width="672" />

It looks like there are some outliers, let me take a look at the data sorted by mortality rate descending


```r
asthma_mortality_no_miss[order(asthma_mortality_no_miss$mortality_rate, decreasing = TRUE),] 
```

```
## # A tibble: 858 × 6
##     year state        pop_est gender fatalities mortality_rate
##    <int> <chr>          <int> <fct>       <dbl>          <dbl>
##  1  2020 New Mexico    211839 Female         26          12.3 
##  2  2020 Pennsylvania 1299444 Female         97           7.46
##  3  2020 Illinois     1278658 Male           89           6.96
##  4  2020 Illinois     1278658 Female         88           6.88
##  5  2020 New Mexico    211839 Male           13           6.14
##  6  2020 Pennsylvania 1299444 Male           69           5.31
##  7  2014 Mississippi  2991892 Female         39           1.3 
##  8  2016 Mississippi  2990595 Female         38           1.27
##  9  2014 Oregon       3965447 Female         50           1.26
## 10  2014 Iowa         3110643 Female         38           1.22
## # ℹ 848 more rows
```

Wow, it looks like in 2020 there was a huge increase due to the pandemic most likely. I'm going to take a look at the data from 2010-2019 to get a closer look at the distribution.


```r
asthma_mortality_drop_2020 <- asthma_mortality_no_miss %>% 
  filter(year != 2020) %>% 
  print()
```

```
## # A tibble: 780 × 6
##     year state       pop_est gender fatalities mortality_rate
##    <int> <chr>         <int> <fct>       <dbl>          <dbl>
##  1  2010 Alabama     4785514 Female         44           0.92
##  2  2010 Alabama     4785514 Male           17           0.36
##  3  2010 Arizona     6407342 Female         31           0.48
##  4  2010 Arizona     6407342 Male           27           0.42
##  5  2010 Arkansas    2921998 Female         29           0.99
##  6  2010 Arkansas    2921998 Male            8           0.27
##  7  2010 California 37319550 Female        251           0.67
##  8  2010 California 37319550 Male          152           0.41
##  9  2010 Colorado    5047539 Female         33           0.65
## 10  2010 Colorado    5047539 Male           15           0.3 
## # ℹ 770 more rows
```
…
