Asthma Incidents Analysis
…
 2
 3
 4
 5
 6
 7
 8
 9
10
11
12
13
14

## # A tibble: 33 × 3
##     year gender  fatalities
##    <int> <fct>        <dbl>
##  1  2010 Female          49
##  2  2010 Male            31
##  3  2010 Overall         80
##  4  2011 Female          62
##  5  2011 Male            32
##  6  2011 Overall         94
##  7  2012 Female          63
##  8  2012 Male            40
##  9  2012 Overall        103
## 10  2013 Female          73
## # ℹ 23 more rows
…
 2
 3
 4
 5
 6
 7
 8
 9
10
11
12
13
14

## # A tibble: 33 × 5
##     year pop_est gender  fatalities mortality_rate
##    <int>   <int> <fct>        <dbl>          <dbl>
##  1  2010 8799451 Female          49           0.56
##  2  2010 8799451 Male            31           0.35
##  3  2010 8799451 Overall         80           0.91
##  4  2011 8828552 Female          62           0.7 
##  5  2011 8828552 Male            32           0.36
##  6  2011 8828552 Overall         94           1.06
##  7  2012 8845671 Female          63           0.71
##  8  2012 8845671 Male            40           0.45
##  9  2012 8845671 Overall        103           1.16
## 10  2013 8857821 Female          73           0.82
## # ℹ 23 more rows
…
 2
 3
 4
 5
 6
 7
 8
 9
10
11
12
13
14

## # A tibble: 1,122 × 6
##     year state       pop_est gender fatalities mortality_rate
##    <int> <chr>         <int> <fct>       <dbl>          <dbl>
##  1  2010 Alabama     4785514 Female         44           0.92
##  2  2010 Alabama     4785514 Male           17           0.36
##  3  2010 Alaska       713982 Female         NA          NA   
##  4  2010 Alaska       713982 Male           NA          NA   
##  5  2010 Arizona     6407342 Female         31           0.48
##  6  2010 Arizona     6407342 Male           27           0.42
##  7  2010 Arkansas    2921998 Female         29           0.99
##  8  2010 Arkansas    2921998 Male            8           0.27
##  9  2010 California 37319550 Female        251           0.67
## 10  2010 California 37319550 Male          152           0.41
## # ℹ 1,112 more rows
…
 2
 3
 4
 5
 6
 7
 8
 9
10
11
12
13
14

## # A tibble: 858 × 6
##     year state       pop_est gender fatalities mortality_rate
##    <int> <chr>         <int> <fct>       <dbl>          <dbl>
##  1  2010 Alabama     4785514 Female         44           0.92
##  2  2010 Alabama     4785514 Male           17           0.36
##  3  2010 Arizona     6407342 Female         31           0.48
##  4  2010 Arizona     6407342 Male           27           0.42
##  5  2010 Arkansas    2921998 Female         29           0.99
##  6  2010 Arkansas    2921998 Male            8           0.27
##  7  2010 California 37319550 Female        251           0.67
##  8  2010 California 37319550 Male          152           0.41
##  9  2010 Colorado    5047539 Female         33           0.65
## 10  2010 Colorado    5047539 Male           15           0.3 
## # ℹ 848 more rows
…
 2
 3
 4
 5
 6
 7
 8
 9
10
11
12
13
14

## # A tibble: 858 × 6
##     year state        pop_est gender fatalities mortality_rate
##    <int> <chr>          <int> <fct>       <dbl>          <dbl>
##  1  2020 New Mexico    211839 Female         26          12.3 
##  2  2020 Pennsylvania 1299444 Female         97           7.46
##  3  2020 Illinois     1278658 Male           89           6.96
##  4  2020 Illinois     1278658 Female         88           6.88
##  5  2020 New Mexico    211839 Male           13           6.14
##  6  2020 Pennsylvania 1299444 Male           69           5.31
##  7  2014 Mississippi  2991892 Female         39           1.3 
##  8  2016 Mississippi  2990595 Female         38           1.27
##  9  2014 Oregon       3965447 Female         50           1.26
## 10  2014 Iowa         3110643 Female         38           1.22
## # ℹ 848 more rows
…
 2
 3
 4
 5
 6
 7
 8
 9
10
11
12
13
14

## # A tibble: 780 × 6
##     year state       pop_est gender fatalities mortality_rate
##    <int> <chr>         <int> <fct>       <dbl>          <dbl>
##  1  2010 Alabama     4785514 Female         44           0.92
##  2  2010 Alabama     4785514 Male           17           0.36
##  3  2010 Arizona     6407342 Female         31           0.48
##  4  2010 Arizona     6407342 Male           27           0.42
##  5  2010 Arkansas    2921998 Female         29           0.99
##  6  2010 Arkansas    2921998 Male            8           0.27
##  7  2010 California 37319550 Female        251           0.67
##  8  2010 California 37319550 Male          152           0.41
##  9  2010 Colorado    5047539 Female         33           0.65
## 10  2010 Colorado    5047539 Male           15           0.3 
## # ℹ 770 more rows
…
