…
Here's the final dataset, I generally display it in a tibble format as the blogdown format seems to display only the first few rows of tibbles which I like as it does not take up too much space on my blog post.

```r
motor_cat_df <- motor_cat %>% 
  filter(!is.na(contrib_cat) & !is.na(type_cat)) %>% 
  dplyr::select(collision_id, month, hour, contrib_cat, type_cat, time_of_day, injured_cat)

motor_cat_final <- as_tibble(motor_cat_df)
motor_cat_final
```

```
## # A tibble: 13,150 × 7
##    collision_id month  hour contrib_cat       type_cat   time_of_day injured_cat
##           <int> <dbl> <int> <fct>             <fct>      <fct>       <fct>      
##  1      4679634    11    15 Driver Error      Motorcycl… Afternoon   Injuries   
##  2      4663636     9     7 Distracted Driver Sedan      Morning     No Injuries
##  3      4663437     9     0 Driver Error      Sedan      Night       No Injuries
##  4      4629913     5    15 Driver Error      Sedan      Afternoon   No Injuries
##  5      4631543     5    16 Driver Error      SUV        Afternoon   Injuries   
##  6      4631801     5    14 Driver Error      SUV        Afternoon   No Injuries
##  7      4632066     5    15 Distracted Driver Pick Up T… Afternoon   No Injuries
##  8      4631365     5     9 Distracted Driver Truck      Morning     No Injuries
##  9      4680340    11    18 Dangerous Driving Motorcycl… Evening     Injuries   
## 10      4631597     5    15 Driver Error      SUV        Afternoon   No Injuries
## # ℹ 13,140 more rows
```
…
