…
names(airquality_mi)[1:6] <- tolower(names(airquality_mi)[1:6])
```

### Final Touches

```r
airquality_mi <- airquality_mi %>%
  dplyr::select(month, day, wind, temp, ozone_mi, solar_mi)

as_tibble(airquality_mi)
```

```
## # A tibble: 153 × 6
##    month   day  wind  temp ozone_mi solar_mi
##    <int> <int> <dbl> <int>    <int>    <int>
##  1     5     1   7.4    67       41      190
##  2     5     2   8      72       36      118
##  3     5     3  12.6    74       12      149
##  4     5     4  11.5    62       18      313
##  5     5     5  14.3    56       42      185
##  6     5     6  14.9    66       28      185
##  7     5     7   8.6    65       23      299
##  8     5     8  13.8    59       19       99
##  9     5     9  20.1    61        8       19
## 10     5    10   8.6    69       42      194
## # ℹ 143 more rows
```
…
