…
```r
blueberries <- blueberries %>% 
  janitor::clean_names(., "snake") %>% 
  select(year, period, week_ending, data_item, value) %>% 
  rename(
    condition = data_item,
    percent = value,
    week_number = period
  ) %>% print()
```

```
## # A tibble: 225 × 5
##     year week_number week_ending condition                               percent
##    <dbl> <chr>       <date>      <chr>                                     <dbl>
##  1  2023 WEEK #26    2023-07-02  BLUEBERRIES, TAME - CONDITION, MEASURE…       0
##  2  2023 WEEK #26    2023-07-02  BLUEBERRIES, TAME - CONDITION, MEASURE…       0
##  3  2023 WEEK #26    2023-07-02  BLUEBERRIES, TAME - CONDITION, MEASURE…     100
##  4  2023 WEEK #26    2023-07-02  BLUEBERRIES, TAME - CONDITION, MEASURE…       0
##  5  2023 WEEK #26    2023-07-02  BLUEBERRIES, TAME - CONDITION, MEASURE…       0
##  6  2023 WEEK #27    2023-07-09  BLUEBERRIES, TAME - CONDITION, MEASURE…      18
##  7  2023 WEEK #27    2023-07-09  BLUEBERRIES, TAME - CONDITION, MEASURE…      19
##  8  2023 WEEK #27    2023-07-09  BLUEBERRIES, TAME - CONDITION, MEASURE…      44
##  9  2023 WEEK #27    2023-07-09  BLUEBERRIES, TAME - CONDITION, MEASURE…      19
## 10  2023 WEEK #27    2023-07-09  BLUEBERRIES, TAME - CONDITION, MEASURE…       0
## # ℹ 215 more rows
```
…
## Data Visualization


```r
blueberries_2021 <- blueberries %>% 
  filter(year == 2021) %>% 
  mutate(
    condition_f = factor(condition)
  ) %>%
  print()
```

```
## # A tibble: 55 × 6
##     year week_number week_ending condition percent condition_f
##    <dbl> <chr>       <date>      <chr>       <dbl> <fct>      
##  1  2021 25          2021-06-27  Excellent      25 Excellent  
##  2  2021 25          2021-06-27  Fair           25 Fair       
##  3  2021 25          2021-06-27  Good           50 Good       
##  4  2021 25          2021-06-27  Poor            0 Poor       
##  5  2021 25          2021-06-27  Very Poor       0 Very Poor  
##  6  2021 26          2021-07-04  Excellent      84 Excellent  
##  7  2021 26          2021-07-04  Fair            8 Fair       
##  8  2021 26          2021-07-04  Good            8 Good       
##  9  2021 26          2021-07-04  Poor            0 Poor       
## 10  2021 26          2021-07-04  Very Poor       0 Very Poor  
## # ℹ 45 more rows
```
…
