…
```r
cholesterol <- as_tibble(category_data)
cholesterol
```

```
## # A tibble: 7,845 × 6
##    gender   age total_cholesterol age_cat  total_cholesterol_cat race    
##    <fct>  <dbl>             <dbl> <fct>    <fct>                 <fct>   
##  1 Female    29               195 [20,40)  Normal                Asian   
##  2 Male      49               147 [40,60)  Normal                White   
##  3 Male      36               164 [20,40)  Normal                White   
##  4 Male      68               105 [60,Inf) Normal                Other   
##  5 Male      76               233 [60,Inf) Borderline            White   
##  6 Female    44               212 [40,60)  Borderline            Hispanic
##  7 Female    68               165 [60,Inf) Normal                Black   
##  8 Female    42               229 [40,60)  Borderline            Asian   
##  9 Male      58               172 [40,60)  Normal                Hispanic
## 10 Male      44               189 [40,60)  Normal                White   
## # ℹ 7,835 more rows
```
…
