…
# Unweighted 
nhanes_tibble <- as_tibble(nhanes) %>% 
  filter(age >= 18) %>%
  select(-psu, -strata, -weight) %>% 
  print()
```

    ## # A tibble: 8,790 × 5
    ##    gender   age   bmi race_cat bmi_cat   
    ##    <fct>  <dbl> <dbl> <fct>    <fct>     
    ##  1 Female    29  37.8 Asian    Obese     
    ##  2 Male      49  29.7 White    Overweight
    ##  3 Male      36  21.9 White    Normal    
    ##  4 Male      68  30.2 Other    Obese     
    ##  5 Male      76  26.6 White    Overweight
    ##  6 Female    44  39.1 Hispanic Obese     
    ##  7 Female    33  28.9 Asian    Overweight
    ##  8 Female    68  28.1 Black    Overweight
    ##  9 Female    42  31.3 Asian    Obese     
    ## 10 Male      58  30.5 Hispanic Obese     
    ## # ℹ 8,780 more rows
…
