Doctor Visits Decision Trees
…
 3
 4
 5
 6
 7
 8
 9
10
11
12
13
14
15

## # A tibble: 485 × 10
##    numvisits exposure children   age income1000 access pc1times1000 race_f sex_f
##        <int>    <int>    <int> <int>      <int>  <int>        <int> <fct>  <fct>
##  1         0      100        1    24      14500     50          495 White  Fema…
##  2         1       90        3    19       6000     17          520 White  Fema…
##  3         0      106        4    17       8377     42        -1227 White  Fema…
##  4         0      114        2    29       6000     33        -1524 White  Fema…
##  5        11      115        1    26       8500     67          173 White  Fema…
##  6         3      102        1    22       6000     25         -905 Other  Fema…
##  7         0       92        2    24       4000     50        -1202 White  Fema…
##  8         6       92        1    21       6000     67          656 White  Fema…
##  9         1      117        1    21       6000     25        -1227 White  Fema…
## 10         0      101        1    24       6000     67         -235 White  Fema…
## # ℹ 475 more rows
## # ℹ 1 more variable: maritalstat_f <fct>
…
